{
  "project_info": {
    "project_number": "981968922776",
    "firebase_url": "https://ecobox-27724.firebaseio.com",
    "project_id": "ecobox-27724",
    "storage_bucket": "ecobox-27724.appspot.com"
  },
  "client": [
    {
      "client_info": {
        "mobilesdk_app_id": "1:981968922776:android:83c245b410cf23374848ed",
        "android_client_info": {
          "package_name": "com.teo.todo"
        }
      },
      "oauth_client": [
        {
          "client_id": "981968922776-7r0k1mn99e1uj3q5a9baas3rjitlpki8.apps.googleusercontent.com",
          "client_type": 3
        }
      ],
      "api_key": [
        {
          "current_key": "AIzaSyB6SPh0StJ2VZPJ8BJ1zEcX8r3yWKB3NlM"
        }
      ],
      "services": {
        "appinvite_service": {
          "other_platform_oauth_client": [
            {
              "client_id": "981968922776-7r0k1mn99e1uj3q5a9baas3rjitlpki8.apps.googleusercontent.com",
              "client_type": 3
            }
          ]
        }
      }
    }
  ],
  "configuration_version": "1"
}